…
    ## The following objects are masked from 'package:stats':
    ## 
    ##     filter, lag

    ## The following objects are masked from 'package:base':
    ## 
    ##     intersect, setdiff, setequal, union

``` r
library(ggplot2)
flights
```

    ## # A tibble: 336,776 x 19
    ##     year month   day dep_time sched_dep_time dep_delay arr_time sched_arr_time
    ##    <int> <int> <int>    <int>          <int>     <dbl>    <int>          <int>
    ##  1  2013     1     1      517            515         2      830            819
    ##  2  2013     1     1      533            529         4      850            830
    ##  3  2013     1     1      542            540         2      923            850
    ##  4  2013     1     1      544            545        -1     1004           1022
    ##  5  2013     1     1      554            600        -6      812            837
    ##  6  2013     1     1      554            558        -4      740            728
    ##  7  2013     1     1      555            600        -5      913            854
    ##  8  2013     1     1      557            600        -3      709            723
    ##  9  2013     1     1      557            600        -3      838            846
    ## 10  2013     1     1      558            600        -2      753            745
    ## # ... with 336,766 more rows, and 11 more variables: arr_delay <dbl>,
    ## #   carrier <chr>, flight <int>, tailnum <chr>, origin <chr>, dest <chr>,
    ## #   air_time <dbl>, distance <dbl>, hour <dbl>, minute <dbl>, time_hour <dttm>

### 1\. flights자료에서 출발이 90분 이상 늦어진 비행 자료 중 year, month, day, dep\_delay, arr\_delay, carrier, origin, dest 만을 뽑아서 Late에 저장하시오.

``` r
Late <- flights %>% 
  filter(dep_delay>=90) %>% 
  select(year, month, day, dep_delay, arr_delay, carrier, origin, dest)
Late
```

    ## # A tibble: 16,061 x 8
    ##     year month   day dep_delay arr_delay carrier origin dest 
    ##    <int> <int> <int>     <dbl>     <dbl> <chr>   <chr>  <chr>
    ##  1  2013     1     1       101       137 MQ      LGA    CLT  
    ##  2  2013     1     1       853       851 MQ      JFK    BWI  
    ##  3  2013     1     1       144       123 UA      EWR    BOS  
    ##  4  2013     1     1       134       145 UA      LGA    IAH  
    ##  5  2013     1     1        96        78 EV      EWR    SAV  
    ##  6  2013     1     1       115       127 EV      EWR    RIC  
    ##  7  2013     1     1       105       125 B6      EWR    MCO  
    ##  8  2013     1     1       122       115 B6      JFK    SJU  
    ##  9  2013     1     1       119       123 EV      JFK    IAD  
    ## 10  2013     1     1        91        61 B6      JFK    SJU  
    ## # ... with 16,051 more rows
…
  - Chicago의 공항코드: ORD, MDW
  - 자료 중 year, month, day, dep\_delay, arr\_delay, carrier, origin,
    dest만을 저장

<!-- end list -->

``` r
Chicago <- flights %>%
  filter(dest %in% c("ORD","MDW")) %>% # filter(dest=="ORD" | dest=="MDW")
  select(year, month, day, dep_delay, arr_delay, carrier, origin, dest)
Chicago
```

    ## # A tibble: 21,396 x 8
    ##     year month   day dep_delay arr_delay carrier origin dest 
    ##    <int> <int> <int>     <dbl>     <dbl> <chr>   <chr>  <chr>
    ##  1  2013     1     1        -4        12 UA      EWR    ORD  
    ##  2  2013     1     1        -2         8 AA      LGA    ORD  
    ##  3  2013     1     1         8        32 MQ      EWR    ORD  
    ##  4  2013     1     1        -1        14 AA      LGA    ORD  
    ##  5  2013     1     1        -4         4 AA      LGA    ORD  
    ##  6  2013     1     1         9        20 UA      LGA    ORD  
    ##  7  2013     1     1         2        21 UA      EWR    ORD  
    ##  8  2013     1     1        -6       -12 AA      LGA    ORD  
    ##  9  2013     1     1        39        49 MQ      EWR    ORD  
    ## 10  2013     1     1        -2        15 B6      JFK    ORD  
    ## # ... with 21,386 more rows
…
### 4\. 30분 이상 늦게 출발했으나 늦어진 출발시간 중 10분 이상을 비행으로 단축한 비행을 추출하여 비행거리가 큰 순서대로 나열하시오.

  - month, day, distance, dest, dep\_delay, arr\_delay 만 표시

<!-- end list -->

``` r
filter(flights, dep_delay>=30) %>% 
  mutate(gain=arr_delay-dep_delay) %>%
  filter(gain<=(-10)) %>%
  arrange(desc(distance)) %>%
  select(month, day, distance, dest, dep_delay, arr_delay)
```

    ## # A tibble: 20,618 x 6
    ##    month   day distance dest  dep_delay arr_delay
    ##    <int> <int>    <dbl> <chr>     <dbl>     <dbl>
    ##  1     1     6     4983 HNL          79        28
    ##  2     1     7     4983 HNL         102        50
    ##  3     1     9     4983 HNL        1301      1272
    ##  4     1    18     4983 HNL         123        65
    ##  5     1    23     4983 HNL         101        82
    ##  6     2     9     4983 HNL         186       154
    ##  7     2    23     4983 HNL         206       126
    ##  8     2    24     4983 HNL          36       -33
    ##  9     2    26     4983 HNL          60       -27
    ## 10     3     8     4983 HNL          48        35
    ## # ... with 20,608 more rows
…
``` r
summer_delay <- flights %>% 
  filter(month %in% c(6,7,8)) %>%
  group_by(month, dest) %>%
  summarize(month_delay=mean(arr_delay, na.rm=TRUE))
```

    ## `summarise()` regrouping output by 'month' (override with `.groups` argument)

``` r
summer_delay
```

    ## # A tibble: 280 x 3
    ## # Groups:   month [3]
    ##    month dest  month_delay
    ##    <int> <chr>       <dbl>
    ##  1     6 ABQ         2.93 
    ##  2     6 ACK        13.0  
    ##  3     6 ALB         0.242
    ##  4     6 ATL        25.6  
    ##  5     6 AUS        13.1  
    ##  6     6 AVL        12.6  
    ##  7     6 BDL        13.3  
    ##  8     6 BGR         7.73 
    ##  9     6 BHM        43    
    ## 10     6 BNA        26.4  
    ## # ... with 270 more rows
…
