…
``` r
NewWho <- who %>%
  filter(year %in% c(2006:2010), na.rm = TRUE)
NewWho
```

    ## # A tibble: 1,072 x 60
    ##    country iso2  iso3   year new_sp_m014 new_sp_m1524 new_sp_m2534 new_sp_m3544
    ##    <chr>   <chr> <chr> <int>       <int>        <int>        <int>        <int>
    ##  1 Afghan~ AF    AFG    2006         193          837          791          574
    ##  2 Afghan~ AF    AFG    2007         186          856          840          597
    ##  3 Afghan~ AF    AFG    2008         187          941          773          545
    ##  4 Afghan~ AF    AFG    2009         200          906          705          499
    ##  5 Afghan~ AF    AFG    2010         197          986          819          491
    ##  6 Albania AL    ALB    2006           5           24           19           22
    ##  7 Albania AL    ALB    2007           0           19           13           16
    ##  8 Albania AL    ALB    2008           1           23           26           13
    ##  9 Albania AL    ALB    2009           0           22           21           12
    ## 10 Albania AL    ALB    2010           0           28           17           14
    ## # ... with 1,062 more rows, and 52 more variables: new_sp_m4554 <int>,
    ## #   new_sp_m5564 <int>, new_sp_m65 <int>, new_sp_f014 <int>,
    ## #   new_sp_f1524 <int>, new_sp_f2534 <int>, new_sp_f3544 <int>,
    ## #   new_sp_f4554 <int>, new_sp_f5564 <int>, new_sp_f65 <int>,
    ## #   new_sn_m014 <int>, new_sn_m1524 <int>, new_sn_m2534 <int>,
    ## #   new_sn_m3544 <int>, new_sn_m4554 <int>, new_sn_m5564 <int>,
    ## #   new_sn_m65 <int>, new_sn_f014 <int>, new_sn_f1524 <int>,
    ## #   new_sn_f2534 <int>, new_sn_f3544 <int>, new_sn_f4554 <int>,
    ## #   new_sn_f5564 <int>, new_sn_f65 <int>, new_ep_m014 <int>,
…
NewwhoTidy <- NewWho %>% 
  gather(new_sp_m014:newrel_f65, key = "key", value = "value", na.rm = TRUE) %>% 
  mutate(key = stringr::str_replace(key, "newrel", "new_rel")) %>% 
  separate(key, c("new", "type", "sexage"), sep = "_") %>% 
  select(-new, -iso2, -iso3) %>% 
  separate(sexage, c("gender", "age_group"), sep = 1) %>%
  mutate(age_group = ifelse(age_group==65, 6500, age_group)) %>%
  separate(age_group, c("ageL", "ageU"), sep = -2, convert = TRUE) %>%
  mutate(ageU = ifelse(ageU==00, 100, ageU)) %>%
  mutate(age = (ageL+ageU)/2 ) %>%
  select(country, year, type, gender, ageL, age, ageU, value)
NewwhoTidy
```

    ## # A tibble: 32,512 x 8
    ##    country      year type  gender  ageL   age  ageU value
    ##    <chr>       <int> <chr> <chr>  <int> <dbl> <dbl> <int>
    ##  1 Afghanistan  2006 sp    m          0     7    14   193
    ##  2 Afghanistan  2007 sp    m          0     7    14   186
    ##  3 Afghanistan  2008 sp    m          0     7    14   187
    ##  4 Afghanistan  2009 sp    m          0     7    14   200
    ##  5 Afghanistan  2010 sp    m          0     7    14   197
    ##  6 Albania      2006 sp    m          0     7    14     5
    ##  7 Albania      2007 sp    m          0     7    14     0
    ##  8 Albania      2008 sp    m          0     7    14     1
    ##  9 Albania      2009 sp    m          0     7    14     0
    ## 10 Albania      2010 sp    m          0     7    14     0
    ## # ... with 32,502 more rows
…
### 3\. 2에서 만든 NewWhoTidy 자료를 이용하여 나라별, type 별, 연도별로 TB 수의 합을 구하고 각 연도별, type별로 구한 TB 수가 가장 큰 나라를 찾으시오.

``` r
NewwhoTidy %>%
  group_by(country) %>%
  summarize(country_value=sum(value))
```

    ## `summarise()` ungrouping output (override with `.groups` argument)

    ## # A tibble: 213 x 2
    ##    country             country_value
    ##    <chr>                       <int>
    ##  1 Afghanistan                 64268
    ##  2 Albania                      2122
    ##  3 Algeria                     41182
    ##  4 American Samoa                 18
    ##  5 Andorra                        36
    ##  6 Angola                     109117
    ##  7 Anguilla                        1
    ##  8 Antigua and Barbuda            16
    ##  9 Argentina                   40191
    ## 10 Armenia                      7094
    ## # ... with 203 more rows
…
  - 연도별로 구한 TB 수가 가장 큰 나라 찾기

### 2006년

``` r
NewwhoTidy %>% 
  filter(year==2006) %>% 
  group_by(country) %>%
  summarize(sum_value=sum(value)) %>%
  arrange(desc(sum_value))
```

    ## `summarise()` ungrouping output (override with `.groups` argument)

    ## # A tibble: 197 x 2
    ##    country                          sum_value
    ##    <chr>                                <int>
    ##  1 India                               553797
    ##  2 China                               468291
    ##  3 South Africa                        272162
    ##  4 Indonesia                           175320
    ##  5 Bangladesh                          140948
    ##  6 Philippines                          85740
    ##  7 Brazil                               74358
    ##  8 Pakistan                             65308
    ##  9 Democratic Republic of the Congo     63144
    ## 10 Viet Nam                             56437
    ## # ... with 187 more rows
2006년 TB 수가 가장 큰 나라는 India입니다.

### 2007년

``` r
NewwhoTidy %>% 
  filter(year==2007) %>% 
  group_by(country) %>%
  summarize(sum_value=sum(value)) %>%
  arrange(desc(sum_value))
```

    ## `summarise()` ungrouping output (override with `.groups` argument)

    ## # A tibble: 189 x 2
    ##    country                          sum_value
    ##    <chr>                                <int>
    ##  1 India                              1198289
    ##  2 China                               465877
    ##  3 South Africa                        286973
    ##  4 Indonesia                           271278
    ##  5 Russian Federation                  120912
    ##  6 Bangladesh                          104296
    ##  7 Pakistan                             88747
    ##  8 Philippines                          86566
    ##  9 Brazil                               71827
    ## 10 Democratic Republic of the Congo     66099
    ## # ... with 179 more rows
2007년 TB 수가 가장 큰 나라는 India입니다.

### 2008년

``` r
NewwhoTidy %>% 
  filter(year==2008) %>% 
  group_by(country) %>%
  summarize(sum_value=sum(value)) %>%
  arrange(desc(sum_value))
```

    ## `summarise()` ungrouping output (override with `.groups` argument)

    ## # A tibble: 194 x 2
    ##    country            sum_value
    ##    <chr>                  <int>
    ##  1 India                 615492
    ##  2 China                 462596
    ##  3 South Africa          320026
    ##  4 Indonesia             292899
    ##  5 Bangladesh            187471
    ##  6 Russian Federation    120835
    ##  7 Pakistan              100037
    ##  8 Philippines            85025
    ##  9 Kenya                  78697
    ## 10 Brazil                 70484
    ## # ... with 184 more rows
2008년 TB 수가 가장 큰 나라는 India입니다.

### 2009년

``` r
NewwhoTidy %>% 
  filter(year==2009) %>% 
  group_by(country) %>%
  summarize(sum_value=sum(value)) %>%
  arrange(desc(sum_value))
```

    ## `summarise()` ungrouping output (override with `.groups` argument)

    ## # A tibble: 196 x 2
    ##    country                               sum_value
    ##    <chr>                                     <int>
    ##  1 China                                    884477
    ##  2 India                                    624617
    ##  3 South Africa                             383774
    ##  4 Indonesia                                289044
    ##  5 Russian Federation                       117227
    ##  6 Pakistan                                 101674
    ##  7 Philippines                               88806
    ##  8 Kenya                                     87427
    ##  9 Democratic People's Republic of Korea     74089
    ## 10 Brazil                                    71572
    ## # ... with 186 more rows
2009년 TB 수가 가장 큰 나라는 China입니다.

### 2010년

``` r
NewwhoTidy %>% 
  filter(year==2010) %>% 
  group_by(country) %>%
  summarize(sum_value=sum(value)) %>%
  arrange(desc(sum_value))
```

    ## `summarise()` ungrouping output (override with `.groups` argument)

    ## # A tibble: 204 x 2
    ##    country                               sum_value
    ##    <chr>                                     <int>
    ##  1 China                                    869092
    ##  2 India                                    630164
    ##  3 South Africa                             364992
    ##  4 Indonesia                                296272
    ##  5 Bangladesh                               150856
    ##  6 Pakistan                                 124455
    ##  7 Russian Federation                       102823
    ##  8 Philippines                               89198
    ##  9 Kenya                                     85484
    ## 10 Democratic People's Republic of Korea     81240
    ## # ... with 194 more rows
…
  - type별로 구한 TB 수가 가장 큰 나라 찾기

### ep

``` r
NewwhoTidy %>% 
  filter(type=="ep") %>% 
  group_by(country) %>%
  summarize(sum_value=sum(value)) %>%
  arrange(desc(sum_value))
```

    ## `summarise()` ungrouping output (override with `.groups` argument)

    ## # A tibble: 189 x 2
    ##    country                               sum_value
    ##    <chr>                                     <int>
    ##  1 South Africa                             302720
    ##  2 India                                    206840
    ##  3 Bangladesh                                64054
    ##  4 Morocco                                   59837
    ##  5 Brazil                                    51344
    ##  6 Kenya                                     47691
    ##  7 Indonesia                                 40595
    ##  8 United Republic of Tanzania               39904
    ##  9 Russian Federation                        37273
    ## 10 Democratic People's Republic of Korea     36861
    ## # ... with 179 more rows
“ep” type의 TB 수가 가장 큰 나라는 South Africa입니다.

### sn

``` r
NewwhoTidy %>% 
  filter(type=="sn") %>% 
  group_by(country) %>%
  summarize(sum_value=sum(value)) %>%
  arrange(desc(sum_value))
```

    ## `summarise()` ungrouping output (override with `.groups` argument)

    ## # A tibble: 188 x 2
    ##    country                               sum_value
    ##    <chr>                                     <int>
    ##  1 China                                    868193
    ##  2 South Africa                             648124
    ##  3 Indonesia                                429326
    ##  4 India                                    398862
    ##  5 Russian Federation                       292705
    ##  6 Zimbabwe                                 116085
    ##  7 Brazil                                   113401
    ##  8 Bangladesh                               104578
    ##  9 Democratic People's Republic of Korea    100220
    ## 10 Kenya                                     93444
    ## # ... with 178 more rows
“sn” type의 TB 수가 가장 큰 나라는 China입니다.

### sp

``` r
NewwhoTidy %>% 
  filter(type=="sp") %>% 
  group_by(country) %>%
  summarize(sum_value=sum(value)) %>%
  arrange(desc(sum_value))
```

    ## `summarise()` ungrouping output (override with `.groups` argument)

    ## # A tibble: 212 x 2
    ##    country                          sum_value
    ##    <chr>                                <int>
    ##  1 India                              3016657
    ##  2 China                              2275815
    ##  3 Indonesia                           854892
    ##  4 South Africa                        677083
    ##  5 Pakistan                            460507
    ##  6 Philippines                         435335
    ##  7 Bangladesh                          418405
    ##  8 Democratic Republic of the Congo    342862
    ##  9 Viet Nam                            267960
    ## 10 Nigeria                             220224
    ## # ... with 202 more rows
…
